David Seaman,Sep 19 1963,England,GK
Anders Limpar,Sep 24 1965,Sweden,AM
Paul Merson,Mar 20 1968,England,RM
Kevin Campbell,Feb 4 1970,England,CF
Alan Smith,Nov 21 1962,England,CF
John Faxe Jensen,May 3 1965,Denmark,CM
Tony Adams,Oct 10 1966,England,CB
Steve Bould,Nov 16 1962,England,CB
David Hillier,Dec 19 1969,England,CM
Nigel Winterburn,Dec 11 1963,England,LB
Lee Dixon,Mar 17 1964,England,RB
Ian Wright,Nov 3 1963,England,CF
Colin Pates,Aug 10 1961,England,CB
Alan Miller,Mar 29 1970,England,GK
Bryan Gunn,Dec 22 1963,Scotland,GK
Mark Bosnich,Jan 13 1972,Australia
Gary Charles,Apr 13 1970,England
Gareth Southgate,Sep 3 1970,England
Paul McGrath,Dec 4 1959,Ireland
Ian Taylor,Jun 4 1968,England